{
  "imports": {
    "root-config": "/root-config.js",
    "navi": "https://sspa-navi.netlify.app/main-es2015.js",
    "locn": "https://sspa-locn.netlify.app/main-es2015.js",
    "logs": "https://sspa-logs.netlify.app/main-es2015.js",
    "single-spa": "https://cdn.jsdelivr.net/npm/single-spa@5.1.1/lib/system/single-spa.min.js"
  }
}
